(export (version D)
  (design
    (source C:/WorkSpace/Projects/AirSuspensionController/Hardware/AirSuspensionController.sch)
    (date "29/04/2018 10:41:04")
    (tool "Eeschema 4.0.7")
    (sheet (number 1) (name /) (tstamps /)
      (title_block
        (title)
        (company)
        (rev)
        (date)
        (source AirSuspensionController.sch)
        (comment (number 1) (value ""))
        (comment (number 2) (value ""))
        (comment (number 3) (value ""))
        (comment (number 4) (value "")))))
  (components
    (comp (ref SW1)
      (value SW_SPDT_MSM)
      (footprint FootprintLib:SW_ROCKER_KCD1-2-123)
      (libsource (lib SchematicLib) (part SW_SPDT_MSM))
      (sheetpath (names /) (tstamps /))
      (tstamp 5ACCE347))
    (comp (ref SW2)
      (value SW_SPDT_MSM)
      (footprint FootprintLib:SW_ROCKER_KCD1-2-123)
      (libsource (lib SchematicLib) (part SW_SPDT_MSM))
      (sheetpath (names /) (tstamps /))
      (tstamp 5ACCE3BD))
    (comp (ref SW3)
      (value SW_SPDT_MSM)
      (footprint FootprintLib:SW_ROCKER_KCD1-2-123)
      (libsource (lib SchematicLib) (part SW_SPDT_MSM))
      (sheetpath (names /) (tstamps /))
      (tstamp 5ACCE3DC))
    (comp (ref SW6)
      (value SW_SPDT_MSM)
      (footprint FootprintLib:SW_ROCKER_KCD1-2-123)
      (libsource (lib SchematicLib) (part SW_SPDT_MSM))
      (sheetpath (names /) (tstamps /))
      (tstamp 5ACCE401))
    (comp (ref SW5)
      (value SW_SPDT_MSM)
      (footprint FootprintLib:SW_ROCKER_KCD1-2-123)
      (libsource (lib SchematicLib) (part SW_SPDT_MSM))
      (sheetpath (names /) (tstamps /))
      (tstamp 5ACCE430))
    (comp (ref SW4)
      (value SW_SPDT_MSM)
      (footprint FootprintLib:SW_ROCKER_KCD1-2-123)
      (libsource (lib SchematicLib) (part SW_SPDT_MSM))
      (sheetpath (names /) (tstamps /))
      (tstamp 5ACCE459))
    (comp (ref SW7)
      (value SW_SPDT_MSM)
      (footprint FootprintLib:SW_ROCKER_KCD1-2-123)
      (libsource (lib SchematicLib) (part SW_SPDT_MSM))
      (sheetpath (names /) (tstamps /))
      (tstamp 5ACD0994))
    (comp (ref SW8)
      (value SW_SPDT_MSM)
      (footprint FootprintLib:SW_ROCKER_KCD1-2-123)
      (libsource (lib SchematicLib) (part SW_SPDT_MSM))
      (sheetpath (names /) (tstamps /))
      (tstamp 5ACD099A))
    (comp (ref SW9)
      (value SW_SPDT_MSM)
      (footprint FootprintLib:SW_ROCKER_KCD1-2-123)
      (libsource (lib SchematicLib) (part SW_SPDT_MSM))
      (sheetpath (names /) (tstamps /))
      (tstamp 5ACD09A0))
    (comp (ref D6)
      (value RECTIFIER)
      (footprint FootprintLib:D_SMA)
      (libsource (lib SchematicLib) (part RECTIFIER))
      (sheetpath (names /) (tstamps /))
      (tstamp 5ACD5FFA))
    (comp (ref D7)
      (value RECTIFIER)
      (footprint FootprintLib:D_SMA)
      (libsource (lib SchematicLib) (part RECTIFIER))
      (sheetpath (names /) (tstamps /))
      (tstamp 5ACD6894))
    (comp (ref D5)
      (value RECTIFIER)
      (footprint FootprintLib:D_SMA)
      (libsource (lib SchematicLib) (part RECTIFIER))
      (sheetpath (names /) (tstamps /))
      (tstamp 5ACD68CC))
    (comp (ref D8)
      (value RECTIFIER)
      (footprint FootprintLib:D_SMA)
      (libsource (lib SchematicLib) (part RECTIFIER))
      (sheetpath (names /) (tstamps /))
      (tstamp 5ACD69D0))
    (comp (ref D9)
      (value RECTIFIER)
      (footprint FootprintLib:D_SMA)
      (libsource (lib SchematicLib) (part RECTIFIER))
      (sheetpath (names /) (tstamps /))
      (tstamp 5ACD6A2A))
    (comp (ref D10)
      (value RECTIFIER)
      (footprint FootprintLib:D_SMA)
      (libsource (lib SchematicLib) (part RECTIFIER))
      (sheetpath (names /) (tstamps /))
      (tstamp 5ACD6B0C))
    (comp (ref D1)
      (value RECTIFIER)
      (footprint FootprintLib:D_SMA)
      (libsource (lib SchematicLib) (part RECTIFIER))
      (sheetpath (names /) (tstamps /))
      (tstamp 5ACD6B50))
    (comp (ref D3)
      (value RECTIFIER)
      (footprint FootprintLib:D_SMA)
      (libsource (lib SchematicLib) (part RECTIFIER))
      (sheetpath (names /) (tstamps /))
      (tstamp 5ACD6D39))
    (comp (ref D17)
      (value RECTIFIER)
      (footprint FootprintLib:D_SMA)
      (libsource (lib SchematicLib) (part RECTIFIER))
      (sheetpath (names /) (tstamps /))
      (tstamp 5ACD6D83))
    (comp (ref D19)
      (value RECTIFIER)
      (footprint FootprintLib:D_SMA)
      (libsource (lib SchematicLib) (part RECTIFIER))
      (sheetpath (names /) (tstamps /))
      (tstamp 5ACD6E62))
    (comp (ref D11)
      (value RECTIFIER)
      (footprint FootprintLib:D_SMA)
      (libsource (lib SchematicLib) (part RECTIFIER))
      (sheetpath (names /) (tstamps /))
      (tstamp 5ACD6EB2))
    (comp (ref D12)
      (value RECTIFIER)
      (footprint FootprintLib:D_SMA)
      (libsource (lib SchematicLib) (part RECTIFIER))
      (sheetpath (names /) (tstamps /))
      (tstamp 5ACD6F5B))
    (comp (ref D13)
      (value RECTIFIER)
      (footprint FootprintLib:D_SMA)
      (libsource (lib SchematicLib) (part RECTIFIER))
      (sheetpath (names /) (tstamps /))
      (tstamp 5ACD6FB5))
    (comp (ref D14)
      (value RECTIFIER)
      (footprint FootprintLib:D_SMA)
      (libsource (lib SchematicLib) (part RECTIFIER))
      (sheetpath (names /) (tstamps /))
      (tstamp 5ACD7036))
    (comp (ref D15)
      (value RECTIFIER)
      (footprint FootprintLib:D_SMA)
      (libsource (lib SchematicLib) (part RECTIFIER))
      (sheetpath (names /) (tstamps /))
      (tstamp 5ACD7530))
    (comp (ref D16)
      (value RECTIFIER)
      (footprint FootprintLib:D_SMA)
      (libsource (lib SchematicLib) (part RECTIFIER))
      (sheetpath (names /) (tstamps /))
      (tstamp 5ACD75B9))
    (comp (ref D2)
      (value RECTIFIER)
      (footprint FootprintLib:D_SMA)
      (libsource (lib SchematicLib) (part RECTIFIER))
      (sheetpath (names /) (tstamps /))
      (tstamp 5ACD761F))
    (comp (ref D4)
      (value RECTIFIER)
      (footprint FootprintLib:D_SMA)
      (libsource (lib SchematicLib) (part RECTIFIER))
      (sheetpath (names /) (tstamps /))
      (tstamp 5ACD76C6))
    (comp (ref D18)
      (value RECTIFIER)
      (footprint FootprintLib:D_SMA)
      (libsource (lib SchematicLib) (part RECTIFIER))
      (sheetpath (names /) (tstamps /))
      (tstamp 5ACD772E))
    (comp (ref D20)
      (value RECTIFIER)
      (footprint FootprintLib:D_SMA)
      (libsource (lib SchematicLib) (part RECTIFIER))
      (sheetpath (names /) (tstamps /))
      (tstamp 5ACD77C9))
    (comp (ref J1)
      (value Conn_01x03)
      (footprint FootprintLib:ARK_3x2.54)
      (libsource (lib conn) (part Conn_01x03))
      (sheetpath (names /) (tstamps /))
      (tstamp 5ACCF7BB))
    (comp (ref J2)
      (value Conn_01x03)
      (footprint FootprintLib:ARK_3x2.54)
      (libsource (lib conn) (part Conn_01x03))
      (sheetpath (names /) (tstamps /))
      (tstamp 5ACCF8F2))
    (comp (ref J3)
      (value Conn_01x03)
      (footprint FootprintLib:ARK_3x2.54)
      (libsource (lib conn) (part Conn_01x03))
      (sheetpath (names /) (tstamps /))
      (tstamp 5ACCF98E)))
  (libparts
    (libpart (lib conn) (part Conn_01x03)
      (description "Generic connector, single row, 01x03")
      (docs ~)
      (footprints
        (fp Connector*:*_??x*mm*)
        (fp Connector*:*1x??x*mm*)
        (fp Pin?Header?Straight?1X*)
        (fp Pin?Header?Angled?1X*)
        (fp Socket?Strip?Straight?1X*)
        (fp Socket?Strip?Angled?1X*))
      (fields
        (field (name Reference) J)
        (field (name Value) Conn_01x03))
      (pins
        (pin (num 1) (name Pin_1) (type passive))
        (pin (num 2) (name Pin_2) (type passive))
        (pin (num 3) (name Pin_3) (type passive))))
    (libpart (lib SchematicLib) (part RECTIFIER)
      (footprints
        (fp LED*))
      (fields
        (field (name Reference) D)
        (field (name Value) RECTIFIER))
      (pins
        (pin (num 1) (name K) (type passive))
        (pin (num 2) (name A) (type passive))))
    (libpart (lib SchematicLib) (part SW_SPDT_MSM)
      (fields
        (field (name Reference) SW)
        (field (name Value) SW_SPDT_MSM))
      (pins
        (pin (num 1) (name 1) (type passive))
        (pin (num 2) (name 2) (type passive))
        (pin (num 3) (name 3) (type passive)))))
  (libraries
    (library (logical conn)
      (uri C:\Programy\KiCad\share\kicad\library\conn.lib))
    (library (logical SchematicLib)
      (uri C:\WorkSpace\Projects\AirSuspensionController\Hardware\lib\SchematicLib.lib)))
  (nets
    (net (code 1) (name "Net-(D13-Pad2)")
      (node (ref SW5) (pin 1))
      (node (ref D13) (pin 2))
      (node (ref D5) (pin 2)))
    (net (code 2) (name "Net-(D14-Pad2)")
      (node (ref SW5) (pin 3))
      (node (ref D14) (pin 2))
      (node (ref D8) (pin 2)))
    (net (code 3) (name "Net-(D11-Pad2)")
      (node (ref D11) (pin 2))
      (node (ref SW6) (pin 1))
      (node (ref D6) (pin 2)))
    (net (code 4) (name "Net-(D12-Pad2)")
      (node (ref SW6) (pin 3))
      (node (ref D7) (pin 2))
      (node (ref D12) (pin 2)))
    (net (code 5) (name "Net-(D15-Pad2)")
      (node (ref SW4) (pin 1))
      (node (ref D15) (pin 2))
      (node (ref D9) (pin 2)))
    (net (code 6) (name "Net-(D10-Pad2)")
      (node (ref SW4) (pin 3))
      (node (ref D10) (pin 2))
      (node (ref D16) (pin 2)))
    (net (code 7) (name /PPP)
      (node (ref J3) (pin 3))
      (node (ref D19) (pin 1))
      (node (ref SW7) (pin 3))
      (node (ref D12) (pin 1)))
    (net (code 8) (name /LPO)
      (node (ref J1) (pin 2))
      (node (ref D1) (pin 1))
      (node (ref SW1) (pin 1))
      (node (ref D6) (pin 1)))
    (net (code 9) (name VCC)
      (node (ref SW9) (pin 2))
      (node (ref SW8) (pin 2))
      (node (ref SW7) (pin 2))
      (node (ref SW4) (pin 2))
      (node (ref SW1) (pin 2))
      (node (ref SW5) (pin 2))
      (node (ref SW6) (pin 2))
      (node (ref SW3) (pin 2))
      (node (ref SW2) (pin 2))
      (node (ref J2) (pin 2)))
    (net (code 10) (name /PPO)
      (node (ref D17) (pin 1))
      (node (ref D11) (pin 1))
      (node (ref J3) (pin 2))
      (node (ref SW7) (pin 1)))
    (net (code 11) (name "Net-(D13-Pad1)")
      (node (ref D18) (pin 2))
      (node (ref D17) (pin 2))
      (node (ref D13) (pin 1))
      (node (ref SW8) (pin 1)))
    (net (code 12) (name "Net-(D14-Pad1)")
      (node (ref D19) (pin 2))
      (node (ref D20) (pin 2))
      (node (ref D14) (pin 1))
      (node (ref SW8) (pin 3)))
    (net (code 13) (name /PTO)
      (node (ref D18) (pin 1))
      (node (ref SW9) (pin 1))
      (node (ref J2) (pin 3))
      (node (ref D15) (pin 1)))
    (net (code 14) (name /PTP)
      (node (ref D20) (pin 1))
      (node (ref J3) (pin 1))
      (node (ref SW9) (pin 3))
      (node (ref D16) (pin 1)))
    (net (code 15) (name /LPP)
      (node (ref SW1) (pin 3))
      (node (ref D3) (pin 1))
      (node (ref J1) (pin 1))
      (node (ref D7) (pin 1)))
    (net (code 16) (name "Net-(D3-Pad2)")
      (node (ref D3) (pin 2))
      (node (ref D4) (pin 2))
      (node (ref D8) (pin 1))
      (node (ref SW2) (pin 3)))
    (net (code 17) (name /LTO)
      (node (ref D2) (pin 1))
      (node (ref J2) (pin 1))
      (node (ref SW3) (pin 1))
      (node (ref D9) (pin 1)))
    (net (code 18) (name /LTP)
      (node (ref D4) (pin 1))
      (node (ref D10) (pin 1))
      (node (ref SW3) (pin 3))
      (node (ref J1) (pin 3)))
    (net (code 19) (name "Net-(D1-Pad2)")
      (node (ref D2) (pin 2))
      (node (ref SW2) (pin 1))
      (node (ref D1) (pin 2))
      (node (ref D5) (pin 1)))))