EESchema Schematic File Version 2
LIBS:SchematicLib
LIBS:power
LIBS:device
LIBS:switches
LIBS:relays
LIBS:motors
LIBS:transistors
LIBS:conn
LIBS:linear
LIBS:regul
LIBS:74xx
LIBS:cmos4000
LIBS:adc-dac
LIBS:memory
LIBS:xilinx
LIBS:microcontrollers
LIBS:dsp
LIBS:microchip
LIBS:analog_switches
LIBS:motorola
LIBS:texas
LIBS:intel
LIBS:audio
LIBS:interface
LIBS:digital-audio
LIBS:philips
LIBS:display
LIBS:cypress
LIBS:siliconi
LIBS:opto
LIBS:atmel
LIBS:contrib
LIBS:valves
LIBS:AirSuspensionController-cache
EELAYER 25 0
EELAYER END
$Descr A4 11693 8268
encoding utf-8
Sheet 1 1
Title ""
Date ""
Rev ""
Comp ""
Comment1 ""
Comment2 ""
Comment3 ""
Comment4 ""
$EndDescr
$Comp
L SW_SPDT_MSM SW1
U 1 1 5ACCE347
P 2850 2250
F 0 "SW1" H 2850 2100 50  0000 C CNN
F 1 "SW_SPDT_MSM" H 3250 2250 50  0000 C CNN
F 2 "FootprintLib:SW_ROCKER_KCD1-2-123" H 2850 2250 50  0001 C CNN
F 3 "" H 2850 2250 50  0001 C CNN
	1    2850 2250
	1    0    0    1   
$EndComp
$Comp
L SW_SPDT_MSM SW2
U 1 1 5ACCE3BD
P 2850 3350
F 0 "SW2" H 2850 3200 50  0000 C CNN
F 1 "SW_SPDT_MSM" H 3250 3350 50  0000 C CNN
F 2 "FootprintLib:SW_ROCKER_KCD1-2-123" H 2850 3350 50  0001 C CNN
F 3 "" H 2850 3350 50  0001 C CNN
	1    2850 3350
	1    0    0    1   
$EndComp
$Comp
L SW_SPDT_MSM SW3
U 1 1 5ACCE3DC
P 2850 4350
F 0 "SW3" H 2850 4200 50  0000 C CNN
F 1 "SW_SPDT_MSM" H 3250 4350 50  0000 C CNN
F 2 "FootprintLib:SW_ROCKER_KCD1-2-123" H 2850 4350 50  0001 C CNN
F 3 "" H 2850 4350 50  0001 C CNN
	1    2850 4350
	1    0    0    1   
$EndComp
$Comp
L SW_SPDT_MSM SW6
U 1 1 5ACCE401
P 4050 2250
F 0 "SW6" H 4050 2100 50  0000 C CNN
F 1 "SW_SPDT_MSM" H 4450 2250 50  0000 C CNN
F 2 "FootprintLib:SW_ROCKER_KCD1-2-123" H 4050 2250 50  0001 C CNN
F 3 "" H 4050 2250 50  0001 C CNN
	1    4050 2250
	1    0    0    1   
$EndComp
$Comp
L SW_SPDT_MSM SW5
U 1 1 5ACCE430
P 4000 3350
F 0 "SW5" H 4000 3200 50  0000 C CNN
F 1 "SW_SPDT_MSM" H 4400 3350 50  0000 C CNN
F 2 "FootprintLib:SW_ROCKER_KCD1-2-123" H 4000 3350 50  0001 C CNN
F 3 "" H 4000 3350 50  0001 C CNN
	1    4000 3350
	1    0    0    1   
$EndComp
$Comp
L SW_SPDT_MSM SW4
U 1 1 5ACCE459
P 3950 4350
F 0 "SW4" H 3950 4200 50  0000 C CNN
F 1 "SW_SPDT_MSM" H 4350 4350 50  0000 C CNN
F 2 "FootprintLib:SW_ROCKER_KCD1-2-123" H 3950 4350 50  0001 C CNN
F 3 "" H 3950 4350 50  0001 C CNN
	1    3950 4350
	1    0    0    1   
$EndComp
$Comp
L VCC #PWR01
U 1 1 5ACCE503
P 2600 2200
F 0 "#PWR01" H 2600 2050 50  0001 C CNN
F 1 "VCC" H 2600 2350 50  0000 C CNN
F 2 "" H 2600 2200 50  0001 C CNN
F 3 "" H 2600 2200 50  0001 C CNN
	1    2600 2200
	1    0    0    -1  
$EndComp
$Comp
L VCC #PWR02
U 1 1 5ACCE527
P 2600 3300
F 0 "#PWR02" H 2600 3150 50  0001 C CNN
F 1 "VCC" H 2600 3450 50  0000 C CNN
F 2 "" H 2600 3300 50  0001 C CNN
F 3 "" H 2600 3300 50  0001 C CNN
	1    2600 3300
	1    0    0    -1  
$EndComp
$Comp
L VCC #PWR03
U 1 1 5ACCE549
P 2600 4300
F 0 "#PWR03" H 2600 4150 50  0001 C CNN
F 1 "VCC" H 2600 4450 50  0000 C CNN
F 2 "" H 2600 4300 50  0001 C CNN
F 3 "" H 2600 4300 50  0001 C CNN
	1    2600 4300
	1    0    0    -1  
$EndComp
$Comp
L VCC #PWR04
U 1 1 5ACCE56B
P 3700 4300
F 0 "#PWR04" H 3700 4150 50  0001 C CNN
F 1 "VCC" H 3700 4450 50  0000 C CNN
F 2 "" H 3700 4300 50  0001 C CNN
F 3 "" H 3700 4300 50  0001 C CNN
	1    3700 4300
	1    0    0    -1  
$EndComp
$Comp
L VCC #PWR05
U 1 1 5ACCE58D
P 3750 3300
F 0 "#PWR05" H 3750 3150 50  0001 C CNN
F 1 "VCC" H 3750 3450 50  0000 C CNN
F 2 "" H 3750 3300 50  0001 C CNN
F 3 "" H 3750 3300 50  0001 C CNN
	1    3750 3300
	1    0    0    -1  
$EndComp
$Comp
L VCC #PWR06
U 1 1 5ACCE5AF
P 3800 2200
F 0 "#PWR06" H 3800 2050 50  0001 C CNN
F 1 "VCC" H 3800 2350 50  0000 C CNN
F 2 "" H 3800 2200 50  0001 C CNN
F 3 "" H 3800 2200 50  0001 C CNN
	1    3800 2200
	1    0    0    -1  
$EndComp
$Comp
L VCC #PWR07
U 1 1 5ACCED97
P 1450 2550
F 0 "#PWR07" H 1450 2400 50  0001 C CNN
F 1 "VCC" H 1450 2700 50  0000 C CNN
F 2 "" H 1450 2550 50  0001 C CNN
F 3 "" H 1450 2550 50  0001 C CNN
	1    1450 2550
	1    0    0    -1  
$EndComp
Text Label 1250 2150 2    50   ~ 0
LPO
Text Label 1250 2050 2    50   ~ 0
LPP
Text Label 1250 2250 2    50   ~ 0
LTP
Text Label 1250 2550 2    50   ~ 0
LTO
Text Label 1250 2750 2    50   ~ 0
PTO
Text Label 1250 3050 2    50   ~ 0
PTP
Text Label 1250 3250 2    50   ~ 0
PPP
Text Label 1250 3150 2    50   ~ 0
PPO
$Comp
L SW_SPDT_MSM SW7
U 1 1 5ACD0994
P 5100 2250
F 0 "SW7" H 5100 2100 50  0000 C CNN
F 1 "SW_SPDT_MSM" H 5500 2250 50  0000 C CNN
F 2 "FootprintLib:SW_ROCKER_KCD1-2-123" H 5100 2250 50  0001 C CNN
F 3 "" H 5100 2250 50  0001 C CNN
	1    5100 2250
	1    0    0    1   
$EndComp
$Comp
L SW_SPDT_MSM SW8
U 1 1 5ACD099A
P 5100 3350
F 0 "SW8" H 5100 3200 50  0000 C CNN
F 1 "SW_SPDT_MSM" H 5500 3350 50  0000 C CNN
F 2 "FootprintLib:SW_ROCKER_KCD1-2-123" H 5100 3350 50  0001 C CNN
F 3 "" H 5100 3350 50  0001 C CNN
	1    5100 3350
	1    0    0    1   
$EndComp
$Comp
L SW_SPDT_MSM SW9
U 1 1 5ACD09A0
P 5100 4400
F 0 "SW9" H 5100 4250 50  0000 C CNN
F 1 "SW_SPDT_MSM" H 5500 4400 50  0000 C CNN
F 2 "FootprintLib:SW_ROCKER_KCD1-2-123" H 5100 4400 50  0001 C CNN
F 3 "" H 5100 4400 50  0001 C CNN
	1    5100 4400
	1    0    0    1   
$EndComp
$Comp
L VCC #PWR08
U 1 1 5ACD09A6
P 4850 2200
F 0 "#PWR08" H 4850 2050 50  0001 C CNN
F 1 "VCC" H 4850 2350 50  0000 C CNN
F 2 "" H 4850 2200 50  0001 C CNN
F 3 "" H 4850 2200 50  0001 C CNN
	1    4850 2200
	1    0    0    -1  
$EndComp
$Comp
L VCC #PWR09
U 1 1 5ACD09AC
P 4850 3300
F 0 "#PWR09" H 4850 3150 50  0001 C CNN
F 1 "VCC" H 4850 3450 50  0000 C CNN
F 2 "" H 4850 3300 50  0001 C CNN
F 3 "" H 4850 3300 50  0001 C CNN
	1    4850 3300
	1    0    0    -1  
$EndComp
$Comp
L VCC #PWR010
U 1 1 5ACD09B2
P 4850 4350
F 0 "#PWR010" H 4850 4200 50  0001 C CNN
F 1 "VCC" H 4850 4500 50  0000 C CNN
F 2 "" H 4850 4350 50  0001 C CNN
F 3 "" H 4850 4350 50  0001 C CNN
	1    4850 4350
	1    0    0    -1  
$EndComp
Wire Wire Line
	2650 4350 2600 4350
Wire Wire Line
	2600 4350 2600 4300
Wire Wire Line
	2650 3350 2600 3350
Wire Wire Line
	2600 3350 2600 3300
Wire Wire Line
	2600 2200 2600 2250
Wire Wire Line
	2600 2250 2650 2250
Wire Wire Line
	3800 2200 3800 2250
Wire Wire Line
	3800 2250 3850 2250
Wire Wire Line
	3750 3300 3750 3350
Wire Wire Line
	3750 3350 3800 3350
Wire Wire Line
	3700 4300 3700 4350
Wire Wire Line
	3700 4350 3750 4350
Wire Wire Line
	1050 2050 1250 2050
Wire Wire Line
	1050 2150 1250 2150
Wire Wire Line
	1050 2250 1250 2250
Wire Wire Line
	1050 2550 1250 2550
Wire Wire Line
	1050 2650 1450 2650
Wire Wire Line
	1050 2750 1250 2750
Wire Wire Line
	1050 3050 1250 3050
Wire Wire Line
	1050 3150 1250 3150
Wire Wire Line
	1050 3250 1250 3250
Wire Wire Line
	3150 3250 3050 3250
Wire Wire Line
	3150 2700 3150 3850
Connection ~ 3150 3250
Wire Wire Line
	3050 4250 3150 4250
Wire Wire Line
	3150 4150 3150 4750
Wire Wire Line
	3050 3450 3350 3450
Wire Wire Line
	3350 2700 3350 3850
Connection ~ 3350 3450
Wire Wire Line
	3050 4450 3350 4450
Wire Wire Line
	3350 4150 3350 4950
Wire Wire Line
	3050 2350 3350 2350
Wire Wire Line
	3350 1950 3350 2400
Wire Wire Line
	3150 1750 3150 2400
Wire Wire Line
	3150 2150 3050 2150
Wire Wire Line
	4900 4400 4850 4400
Wire Wire Line
	4850 4400 4850 4350
Wire Wire Line
	4900 3350 4850 3350
Wire Wire Line
	4850 3350 4850 3300
Wire Wire Line
	4850 2200 4850 2250
Wire Wire Line
	4850 2250 4900 2250
Wire Wire Line
	5400 3250 5300 3250
Wire Wire Line
	5400 2700 5400 3850
Connection ~ 5400 3250
Wire Wire Line
	5300 4300 5400 4300
Wire Wire Line
	5400 4150 5400 4750
Wire Wire Line
	5300 3450 5600 3450
Wire Wire Line
	5600 2700 5600 3850
Connection ~ 5600 3450
Wire Wire Line
	5300 4500 5600 4500
Wire Wire Line
	5600 4150 5600 4950
Wire Wire Line
	5300 2350 5600 2350
Wire Wire Line
	5600 1950 5600 2400
Wire Wire Line
	5400 1750 5400 2400
Wire Wire Line
	5400 2150 5300 2150
Wire Wire Line
	3350 1950 3800 1950
Connection ~ 3350 2350
Wire Wire Line
	3150 1750 3800 1750
Connection ~ 3150 2150
Wire Wire Line
	4100 1750 4500 1750
Wire Wire Line
	4100 1950 4500 1950
Wire Wire Line
	4800 1950 5600 1950
Connection ~ 5600 2350
Wire Wire Line
	5400 1750 4800 1750
Connection ~ 5400 2150
Wire Wire Line
	3350 4950 3800 4950
Wire Wire Line
	3150 4750 3800 4750
Wire Wire Line
	4100 4750 4500 4750
Wire Wire Line
	4100 4950 4500 4950
Wire Wire Line
	5600 4950 4800 4950
Wire Wire Line
	5400 4750 4800 4750
Connection ~ 3150 4250
Connection ~ 3350 4450
Connection ~ 5400 4300
Connection ~ 5600 4500
Wire Wire Line
	4150 4450 4250 4450
Wire Wire Line
	4250 4450 4250 4950
Connection ~ 4250 4950
Wire Wire Line
	4150 4250 4350 4250
Wire Wire Line
	4350 4250 4350 4750
Connection ~ 4350 4750
Wire Wire Line
	4100 3700 4500 3700
Wire Wire Line
	3800 3700 3350 3700
Connection ~ 3350 3700
Wire Wire Line
	4800 3700 5600 3700
Connection ~ 5600 3700
Wire Wire Line
	4200 3450 4350 3450
Wire Wire Line
	4350 3450 4350 3700
Connection ~ 4350 3700
Wire Wire Line
	4200 3250 4350 3250
Wire Wire Line
	4350 3250 4350 2950
Wire Wire Line
	4050 2950 4500 2950
Connection ~ 4350 2950
Wire Wire Line
	4800 2950 5400 2950
Connection ~ 5400 2950
Wire Wire Line
	3750 2950 3150 2950
Connection ~ 3150 2950
Wire Wire Line
	4250 2150 4300 2150
Wire Wire Line
	4300 2150 4300 1750
Connection ~ 4300 1750
Wire Wire Line
	4250 2350 4400 2350
Wire Wire Line
	4400 2350 4400 1950
Connection ~ 4400 1950
$Comp
L RECTIFIER D6
U 1 1 5ACD5FFA
P 3950 1950
F 0 "D6" H 3950 2050 50  0000 C CNN
F 1 "RECTIFIER" H 3950 1850 50  0001 C CNN
F 2 "FootprintLib:D_SMA" H 3950 1950 50  0001 C CNN
F 3 "" H 3950 1950 50  0001 C CNN
	1    3950 1950
	1    0    0    -1  
$EndComp
$Comp
L RECTIFIER D7
U 1 1 5ACD6894
P 3950 1750
F 0 "D7" H 3950 1850 50  0000 C CNN
F 1 "RECTIFIER" H 3950 1650 50  0001 C CNN
F 2 "FootprintLib:D_SMA" H 3950 1750 50  0001 C CNN
F 3 "" H 3950 1750 50  0001 C CNN
	1    3950 1750
	1    0    0    -1  
$EndComp
$Comp
L RECTIFIER D5
U 1 1 5ACD68CC
P 3950 3700
F 0 "D5" H 3950 3800 50  0000 C CNN
F 1 "RECTIFIER" H 3950 3600 50  0001 C CNN
F 2 "FootprintLib:D_SMA" H 3950 3700 50  0001 C CNN
F 3 "" H 3950 3700 50  0001 C CNN
	1    3950 3700
	1    0    0    -1  
$EndComp
$Comp
L RECTIFIER D8
U 1 1 5ACD69D0
P 3900 2950
F 0 "D8" H 3900 3050 50  0000 C CNN
F 1 "RECTIFIER" H 3900 2850 50  0001 C CNN
F 2 "FootprintLib:D_SMA" H 3900 2950 50  0001 C CNN
F 3 "" H 3900 2950 50  0001 C CNN
	1    3900 2950
	1    0    0    -1  
$EndComp
$Comp
L RECTIFIER D9
U 1 1 5ACD6A2A
P 3950 4950
F 0 "D9" H 3950 5050 50  0000 C CNN
F 1 "RECTIFIER" H 3950 4850 50  0001 C CNN
F 2 "FootprintLib:D_SMA" H 3950 4950 50  0001 C CNN
F 3 "" H 3950 4950 50  0001 C CNN
	1    3950 4950
	1    0    0    -1  
$EndComp
$Comp
L RECTIFIER D10
U 1 1 5ACD6B0C
P 3950 4750
F 0 "D10" H 3950 4850 50  0000 C CNN
F 1 "RECTIFIER" H 3950 4650 50  0001 C CNN
F 2 "FootprintLib:D_SMA" H 3950 4750 50  0001 C CNN
F 3 "" H 3950 4750 50  0001 C CNN
	1    3950 4750
	1    0    0    -1  
$EndComp
$Comp
L RECTIFIER D1
U 1 1 5ACD6B50
P 3350 2550
F 0 "D1" H 3350 2650 50  0000 C CNN
F 1 "RECTIFIER" H 3350 2450 50  0001 C CNN
F 2 "FootprintLib:D_SMA" H 3350 2550 50  0001 C CNN
F 3 "" H 3350 2550 50  0001 C CNN
	1    3350 2550
	0    1    1    0   
$EndComp
$Comp
L RECTIFIER D3
U 1 1 5ACD6D39
P 3150 2550
F 0 "D3" H 3150 2650 50  0000 C CNN
F 1 "RECTIFIER" H 3150 2450 50  0001 C CNN
F 2 "FootprintLib:D_SMA" H 3150 2550 50  0001 C CNN
F 3 "" H 3150 2550 50  0001 C CNN
	1    3150 2550
	0    1    1    0   
$EndComp
$Comp
L RECTIFIER D17
U 1 1 5ACD6D83
P 5600 2550
F 0 "D17" H 5600 2650 50  0000 C CNN
F 1 "RECTIFIER" H 5600 2450 50  0001 C CNN
F 2 "FootprintLib:D_SMA" H 5600 2550 50  0001 C CNN
F 3 "" H 5600 2550 50  0001 C CNN
	1    5600 2550
	0    1    1    0   
$EndComp
$Comp
L RECTIFIER D19
U 1 1 5ACD6E62
P 5400 2550
F 0 "D19" H 5400 2650 50  0000 C CNN
F 1 "RECTIFIER" H 5400 2450 50  0001 C CNN
F 2 "FootprintLib:D_SMA" H 5400 2550 50  0001 C CNN
F 3 "" H 5400 2550 50  0001 C CNN
	1    5400 2550
	0    1    1    0   
$EndComp
$Comp
L RECTIFIER D11
U 1 1 5ACD6EB2
P 4650 1950
F 0 "D11" H 4650 1850 50  0000 C CNN
F 1 "RECTIFIER" H 4650 1850 50  0001 C CNN
F 2 "FootprintLib:D_SMA" H 4650 1950 50  0001 C CNN
F 3 "" H 4650 1950 50  0001 C CNN
	1    4650 1950
	-1   0    0    1   
$EndComp
$Comp
L RECTIFIER D12
U 1 1 5ACD6F5B
P 4650 1750
F 0 "D12" H 4650 1650 50  0000 C CNN
F 1 "RECTIFIER" H 4650 1650 50  0001 C CNN
F 2 "FootprintLib:D_SMA" H 4650 1750 50  0001 C CNN
F 3 "" H 4650 1750 50  0001 C CNN
	1    4650 1750
	-1   0    0    1   
$EndComp
$Comp
L RECTIFIER D13
U 1 1 5ACD6FB5
P 4650 3700
F 0 "D13" H 4650 3600 50  0000 C CNN
F 1 "RECTIFIER" H 4650 3600 50  0001 C CNN
F 2 "FootprintLib:D_SMA" H 4650 3700 50  0001 C CNN
F 3 "" H 4650 3700 50  0001 C CNN
	1    4650 3700
	-1   0    0    1   
$EndComp
$Comp
L RECTIFIER D14
U 1 1 5ACD7036
P 4650 2950
F 0 "D14" H 4650 2850 50  0000 C CNN
F 1 "RECTIFIER" H 4650 2850 50  0001 C CNN
F 2 "FootprintLib:D_SMA" H 4650 2950 50  0001 C CNN
F 3 "" H 4650 2950 50  0001 C CNN
	1    4650 2950
	-1   0    0    1   
$EndComp
$Comp
L RECTIFIER D15
U 1 1 5ACD7530
P 4650 4950
F 0 "D15" H 4650 4850 50  0000 C CNN
F 1 "RECTIFIER" H 4650 4850 50  0001 C CNN
F 2 "FootprintLib:D_SMA" H 4650 4950 50  0001 C CNN
F 3 "" H 4650 4950 50  0001 C CNN
	1    4650 4950
	-1   0    0    1   
$EndComp
$Comp
L RECTIFIER D16
U 1 1 5ACD75B9
P 4650 4750
F 0 "D16" H 4650 4650 50  0000 C CNN
F 1 "RECTIFIER" H 4650 4650 50  0001 C CNN
F 2 "FootprintLib:D_SMA" H 4650 4750 50  0001 C CNN
F 3 "" H 4650 4750 50  0001 C CNN
	1    4650 4750
	-1   0    0    1   
$EndComp
$Comp
L RECTIFIER D2
U 1 1 5ACD761F
P 3350 4000
F 0 "D2" H 3350 3900 50  0000 C CNN
F 1 "RECTIFIER" H 3350 3900 50  0001 C CNN
F 2 "FootprintLib:D_SMA" H 3350 4000 50  0001 C CNN
F 3 "" H 3350 4000 50  0001 C CNN
	1    3350 4000
	0    -1   -1   0   
$EndComp
$Comp
L RECTIFIER D4
U 1 1 5ACD76C6
P 3150 4000
F 0 "D4" H 3150 3900 50  0000 C CNN
F 1 "RECTIFIER" H 3150 3900 50  0001 C CNN
F 2 "FootprintLib:D_SMA" H 3150 4000 50  0001 C CNN
F 3 "" H 3150 4000 50  0001 C CNN
	1    3150 4000
	0    -1   -1   0   
$EndComp
$Comp
L RECTIFIER D18
U 1 1 5ACD772E
P 5600 4000
F 0 "D18" H 5600 3900 50  0000 C CNN
F 1 "RECTIFIER" H 5600 3900 50  0001 C CNN
F 2 "FootprintLib:D_SMA" H 5600 4000 50  0001 C CNN
F 3 "" H 5600 4000 50  0001 C CNN
	1    5600 4000
	0    -1   -1   0   
$EndComp
$Comp
L RECTIFIER D20
U 1 1 5ACD77C9
P 5400 4000
F 0 "D20" H 5400 3900 50  0000 C CNN
F 1 "RECTIFIER" H 5400 3900 50  0001 C CNN
F 2 "FootprintLib:D_SMA" H 5400 4000 50  0001 C CNN
F 3 "" H 5400 4000 50  0001 C CNN
	1    5400 4000
	0    -1   -1   0   
$EndComp
Text Label 3500 1950 2    50   ~ 0
LPO
Text Label 3500 1750 2    50   ~ 0
LPP
Text Label 3600 4750 2    50   ~ 0
LTP
Text Label 3600 4950 2    50   ~ 0
LTO
Text Label 5300 4950 2    50   ~ 0
PTO
Text Label 5300 4750 2    50   ~ 0
PTP
Text Label 5350 1750 2    50   ~ 0
PPP
Text Label 5350 1950 2    50   ~ 0
PPO
$Comp
L Conn_01x03 J1
U 1 1 5ACCF7BB
P 850 2150
F 0 "J1" H 850 2350 50  0000 C CNN
F 1 "Conn_01x03" H 850 1950 50  0000 C CNN
F 2 "FootprintLib:ARK_3x2.54" H 850 2150 50  0001 C CNN
F 3 "" H 850 2150 50  0001 C CNN
	1    850  2150
	-1   0    0    -1  
$EndComp
$Comp
L Conn_01x03 J2
U 1 1 5ACCF8F2
P 850 2650
F 0 "J2" H 850 2850 50  0000 C CNN
F 1 "Conn_01x03" H 850 2450 50  0000 C CNN
F 2 "FootprintLib:ARK_3x2.54" H 850 2650 50  0001 C CNN
F 3 "" H 850 2650 50  0001 C CNN
	1    850  2650
	-1   0    0    -1  
$EndComp
$Comp
L Conn_01x03 J3
U 1 1 5ACCF98E
P 850 3150
F 0 "J3" H 850 3350 50  0000 C CNN
F 1 "Conn_01x03" H 850 2950 50  0000 C CNN
F 2 "FootprintLib:ARK_3x2.54" H 850 3150 50  0001 C CNN
F 3 "" H 850 3150 50  0001 C CNN
	1    850  3150
	-1   0    0    -1  
$EndComp
Wire Wire Line
	1450 2650 1450 2550
$EndSCHEMATC
